…
### Exercise 7

Star Wars made the most profit for Lego

``` r
lego_sales %>%
  group_by(theme) %>%
  summarise(total_n = sum(us_price)) %>%
  arrange(desc(total_n))
```

    ## # A tibble: 25 × 2
    ##    theme           total_n
    ##    <chr>             <dbl>
    ##  1 Star Wars         2842.
    ##  2 Ninjago           1650.
    ##  3 Nexo Knights      1569.
    ##  4 City              1477.
    ##  5 Minecraft         1440.
    ##  6 Gear              1056.
    ##  7 Friends            925.
    ##  8 Duplo              855.
    ##  9 Elves              810.
    ## 10 Advanced Models    680.
    ## # … with 15 more rows
…
